   9
sisl-version=1 cell= 4.91362818 0.00000000 0.00000000 -2.45681409 4.25911676 0.00000000 0.00000000 0.00000000 40.51491471  nsc= 1 1 1
C   1.24524284  0.69928277  19.96453878
C   -0.01749706  1.42912706  19.96453900
C   -0.00042390  2.84204145  19.99954442
C   -1.22863958  3.54962123  20.00069575
C   3.68558370  0.70971858  20.00069560
C   2.45937506  1.42076643  19.99953816
C   2.45752289  2.84010335  20.00024904
C   1.22871510  3.55033252  20.00025059
H   0.61158555  1.06025017  21.07640669

