   9
sisl-version=1 cell= 4.91362818 0.00000000 0.00000000 -2.45681409 4.25911676 0.00000000 0.00000000 0.00000000 40.51491471  nsc= 1 1 1
C   1.23196504  0.70757190  19.99556581
C   -0.00687314  1.42355125  19.95820858
C   -0.00015371  2.84153619  19.99937601
C   -1.22856371  3.54951111  20.00070063
C   3.68528627  0.70976458  20.00071429
C   2.45735221  1.41994656  20.00047915
C   2.45713188  2.83956650  20.00054688
C   1.22873494  3.54994306  20.00043053
H   0.20176677  1.29961103  21.05043616

